{
  "getDraftEvents" : {
    "transaction" : "getDraftEvents",
    "sampleCount" : 1448,
    "errorCount" : 0,
    "errorPct" : 0.0,
    "meanResTime" : 393.36187845303823,
    "medianResTime" : 404.0,
    "minResTime" : 124.0,
    "maxResTime" : 822.0,
    "pct1ResTime" : 517.0,
    "pct2ResTime" : 556.55,
    "pct3ResTime" : 649.53,
    "throughput" : 4.828904058880615,
    "receivedKBytesPerSec" : 191.32834280925164,
    "sentKBytesPerSec" : 20.59829387616262
  },
  "getMeasurementsForChildByFromAndToDate" : {
    "transaction" : "getMeasurementsForChildByFromAndToDate",
    "sampleCount" : 4540,
    "errorCount" : 0,
    "errorPct" : 0.0,
    "meanResTime" : 125.28414096916293,
    "medianResTime" : 104.0,
    "minResTime" : 21.0,
    "maxResTime" : 642.0,
    "pct1ResTime" : 254.0,
    "pct2ResTime" : 283.0,
    "pct3ResTime" : 332.0,
    "throughput" : 15.13747090871505,
    "receivedKBytesPerSec" : 14.5040197706123,
    "sentKBytesPerSec" : 22.1001162192666
  },
  "getLevelsForSchool" : {
    "transaction" : "getLevelsForSchool",
    "sampleCount" : 5101,
    "errorCount" : 0,
    "errorPct" : 0.0,
    "meanResTime" : 111.47657322093747,
    "medianResTime" : 91.0,
    "minResTime" : 18.0,
    "maxResTime" : 614.0,
    "pct1ResTime" : 228.0,
    "pct2ResTime" : 269.0,
    "pct3ResTime" : 317.0,
    "throughput" : 17.01172578472046,
    "receivedKBytesPerSec" : 25.517588677080695,
    "sentKBytesPerSec" : 19.90239012704601
  },
  "Total" : {
    "transaction" : "Total",
    "sampleCount" : 32148,
    "errorCount" : 0,
    "errorPct" : 0.0,
    "meanResTime" : 106.10551200696743,
    "medianResTime" : 79.0,
    "minResTime" : 12.0,
    "maxResTime" : 822.0,
    "pct1ResTime" : 238.90000000000146,
    "pct2ResTime" : 301.0,
    "pct3ResTime" : 483.0,
    "throughput" : 107.186081946607,
    "receivedKBytesPerSec" : 289.2758494410723,
    "sentKBytesPerSec" : 173.69324191803338
  },
  "getCentreAttendanceSummaries1" : {
    "transaction" : "getCentreAttendanceSummaries1",
    "sampleCount" : 5717,
    "errorCount" : 0,
    "errorPct" : 0.0,
    "meanResTime" : 99.48784327444487,
    "medianResTime" : 82.0,
    "minResTime" : 16.0,
    "maxResTime" : 617.0,
    "pct1ResTime" : 200.0,
    "pct2ResTime" : 244.0,
    "pct3ResTime" : 292.8199999999997,
    "throughput" : 19.06130491752993,
    "receivedKBytesPerSec" : 27.996291597622086,
    "sentKBytesPerSec" : 52.86533785721192
  },
  "getAllClassChildren" : {
    "transaction" : "getAllClassChildren",
    "sampleCount" : 6435,
    "errorCount" : 0,
    "errorPct" : 0.0,
    "meanResTime" : 88.30473970473965,
    "medianResTime" : 72.0,
    "minResTime" : 14.0,
    "maxResTime" : 614.0,
    "pct1ResTime" : 179.0,
    "pct2ResTime" : 227.19999999999982,
    "pct3ResTime" : 278.6400000000003,
    "throughput" : 21.455506913441116,
    "receivedKBytesPerSec" : 12.403964934333146,
    "sentKBytesPerSec" : 32.45564473527372
  },
  "likeOrUnlikeClassActivity" : {
    "transaction" : "likeOrUnlikeClassActivity",
    "sampleCount" : 8907,
    "errorCount" : 0,
    "errorPct" : 0.0,
    "meanResTime" : 63.66307398675212,
    "medianResTime" : 50.0,
    "minResTime" : 12.0,
    "maxResTime" : 613.0,
    "pct1ResTime" : 117.0,
    "pct2ResTime" : 161.0,
    "pct3ResTime" : 238.84000000000015,
    "throughput" : 29.70207884539713,
    "receivedKBytesPerSec" : 17.577597441709628,
    "sentKBytesPerSec" : 25.78627743511528
  }
}